#If you choose to edit this directly, do not include quotes around strings
#and make sure to escape backslashes (i.e. '\\') or use forward-slashes

#no default value for lhmHome
setup:
  lhmHome: ''
  matlabDir: ''

#structure is <major version number (decimal)>.<date version>
version:
  frontend: 0.65.20210210
  lhm: 0.6.20210210
