Class_ID,Class_name,wilt_pt,dry_albedo,field_cap,bub_press,pore_size
1,sand,0.05,0.23,0.096,0.073,0.694
2,loamy sand,0.05,0.265,0.123,0.087,0.553
3,sandy loam,0.08,0.237,0.194,0.147,0.378
4,loam,0.14,0.254,0.275,0.112,0.252
5,silt loam,0.11,0.252,0.32,0.208,0.234
6,silt,0.06,0.15,0.3,0.2,0.2
7,sandy clay loam,0.17,0.09,0.263,0.281,0.319
8,clay loam,0.22,0.23,0.339,0.259,0.242
9,silty clay loam,0.22,0.252,0.373,0.326,0.177
10,sandy clay,0.25,0.15,0.35,0.292,0.223
11,silty clay,0.27,0.3,0.399,0.342,0.15
12,clay,0.3,0.3,0.408,0.373,0.165
13,bedrock,0.3,0.3,0.408,0.373,0.165
14,muck,0.17,0.09,0.263,0.281,0.319
15,water,,,,,
