IRRIG_ID,IRRIG_NAME,APPHEIGHT,SPRAYWIDTH
1,high_pressure_spray,4.5,20
2,low_pressure_med_elev_spray,2,5
3,low_pressure_in_canopy_spray,1,3
4,low_pressure_low_elev_spray,0.5,2
5,lepa,0,0.3
6,subsurface_drip,-0.25,0
7,ditch/furrow,0,0
8,flood,0,0
