TEX_ID,LU_ID,SLOPEMIN,SLOPEMAX,IRRIGTECH,DEPCAP,Notes
1,1,0.00,0.50,0,0.00343,Most of these: Manfreda et al. 2005
1,1,0.50,5.00,0,0.00269,Ag x 10 for tillage
1,1,5.00,10.00,0,0.00196,
1,1,10.00,100.00,0,0.00123,
1,2,0.00,0.50,0,0.03000,0.00300
1,2,0.50,5.00,0,0.02250,0.00225
1,2,5.00,10.00,0,0.01500,0.00150
1,2,10.00,100.00,0,0.00750,0.00075
1,3,0.00,0.50,0,0.00500,
1,3,0.50,5.00,0,0.00375,
1,3,5.00,10.00,0,0.00250,
1,3,10.00,100.00,0,0.00125,
1,4,0.00,0.50,0,0.00800,
1,4,0.50,5.00,0,0.00600,
1,4,5.00,10.00,0,0.00400,
1,4,10.00,100.00,0,0.00200,
1,5,0.00,0.50,0,0.00000,
1,5,0.50,5.00,0,0.00000,
1,5,5.00,10.00,0,0.00000,
1,5,10.00,100.00,0,0.00000,
1,6,0.00,0.50,0,0.00000,
1,6,0.50,5.00,0,0.00000,
1,6,5.00,10.00,0,0.00000,
1,6,10.00,100.00,0,0.00000,
1,7,0.00,0.50,0,0.00150,
1,7,0.50,5.00,0,0.00113,
1,7,5.00,10.00,0,0.00075,
1,7,10.00,100.00,0,0.00038,
1,8,0.00,0.50,0,0.00800,
1,8,0.50,5.00,0,0.00600,
1,8,5.00,10.00,0,0.00400,
1,8,10.00,100.00,0,0.00200,
1,9,0.00,0.50,0,0.00500,
1,9,0.50,5.00,0,0.00375,
1,9,5.00,10.00,0,0.00250,
1,9,10.00,100.00,0,0.00125,
1,10,0.00,0.50,0,0.00000,
1,10,0.50,5.00,0,0.00000,
1,10,5.00,10.00,0,0.00000,
1,10,10.00,100.00,0,0.00000,
2,1,0.00,0.50,0,0.00326,
2,1,0.50,5.00,0,0.00257,
2,1,5.00,10.00,0,0.00188,
2,1,10.00,100.00,0,0.00119,
2,2,0.00,0.50,0,0.02860,0.00286
2,2,0.50,5.00,0,0.02140,0.00214
2,2,5.00,10.00,0,0.01420,0.00142
2,2,10.00,100.00,0,0.00700,0.00070
2,3,0.00,0.50,0,0.00473,
2,3,0.50,5.00,0,0.00354,
2,3,5.00,10.00,0,0.00236,
2,3,10.00,100.00,0,0.00117,
2,4,0.00,0.50,0,0.00750,
2,4,0.50,5.00,0,0.00563,
2,4,5.00,10.00,0,0.00375,
2,4,10.00,100.00,0,0.00188,
2,5,0.00,0.50,0,0.00000,
2,5,0.50,5.00,0,0.00000,
2,5,5.00,10.00,0,0.00000,
2,5,10.00,100.00,0,0.00000,
2,6,0.00,0.50,0,0.00000,
2,6,0.50,5.00,0,0.00000,
2,6,5.00,10.00,0,0.00000,
2,6,10.00,100.00,0,0.00000,
2,7,0.00,0.50,0,0.00145,
2,7,0.50,5.00,0,0.00109,
2,7,5.00,10.00,0,0.00072,
2,7,10.00,100.00,0,0.00035,
2,8,0.00,0.50,0,0.00750,
2,8,0.50,5.00,0,0.00563,
2,8,5.00,10.00,0,0.00375,
2,8,10.00,100.00,0,0.00188,
2,9,0.00,0.50,0,0.00473,
2,9,0.50,5.00,0,0.00354,
2,9,5.00,10.00,0,0.00236,
2,9,10.00,100.00,0,0.00117,
2,10,0.00,0.50,0,0.00000,
2,10,0.50,5.00,0,0.00000,
2,10,5.00,10.00,0,0.00000,
2,10,10.00,100.00,0,0.00000,
3,1,0.00,0.50,0,0.00308,
3,1,0.50,5.00,0,0.00244,
3,1,5.00,10.00,0,0.00179,
3,1,10.00,100.00,0,0.00114,
3,2,0.00,0.50,0,0.02730,0.00273
3,2,0.50,5.00,0,0.02040,0.00204
3,2,5.00,10.00,0,0.01350,0.00135
3,2,10.00,100.00,0,0.00660,0.00066
3,3,0.00,0.50,0,0.00445,
3,3,0.50,5.00,0,0.00333,
3,3,5.00,10.00,0,0.00221,
3,3,10.00,100.00,0,0.00109,
3,4,0.00,0.50,0,0.00700,
3,4,0.50,5.00,0,0.00525,
3,4,5.00,10.00,0,0.00350,
3,4,10.00,100.00,0,0.00175,
3,5,0.00,0.50,0,0.00000,
3,5,0.50,5.00,0,0.00000,
3,5,5.00,10.00,0,0.00000,
3,5,10.00,100.00,0,0.00000,
3,6,0.00,0.50,0,0.00000,
3,6,0.50,5.00,0,0.00000,
3,6,5.00,10.00,0,0.00000,
3,6,10.00,100.00,0,0.00000,
3,7,0.00,0.50,0,0.00141,
3,7,0.50,5.00,0,0.00105,
3,7,5.00,10.00,0,0.00069,
3,7,10.00,100.00,0,0.00033,
3,8,0.00,0.50,0,0.00700,
3,8,0.50,5.00,0,0.00525,
3,8,5.00,10.00,0,0.00350,
3,8,10.00,100.00,0,0.00175,
3,9,0.00,0.50,0,0.00445,
3,9,0.50,5.00,0,0.00333,
3,9,5.00,10.00,0,0.00221,
3,9,10.00,100.00,0,0.00109,
3,10,0.00,0.50,0,0.00000,
3,10,0.50,5.00,0,0.00000,
3,10,5.00,10.00,0,0.00000,
3,10,10.00,100.00,0,0.00000,
4,1,0.00,0.50,0,0.00257,
4,1,0.50,5.00,0,0.00205,
4,1,5.00,10.00,0,0.00153,
4,1,10.00,100.00,0,0.00100,
4,2,0.00,0.50,0,0.02320,0.00232
4,2,0.50,5.00,0,0.01720,0.00172
4,2,5.00,10.00,0,0.01120,0.00112
4,2,10.00,100.00,0,0.00520,0.00052
4,3,0.00,0.50,0,0.00364,
4,3,0.50,5.00,0,0.00271,
4,3,5.00,10.00,0,0.00179,
4,3,10.00,100.00,0,0.00086,
4,4,0.00,0.50,0,0.00550,
4,4,0.50,5.00,0,0.00413,
4,4,5.00,10.00,0,0.00275,
4,4,10.00,100.00,0,0.00138,
4,5,0.00,0.50,0,0.00000,
4,5,0.50,5.00,0,0.00000,
4,5,5.00,10.00,0,0.00000,
4,5,10.00,100.00,0,0.00000,
4,6,0.00,0.50,0,0.00000,
4,6,0.50,5.00,0,0.00000,
4,6,5.00,10.00,0,0.00000,
4,6,10.00,100.00,0,0.00000,
4,7,0.00,0.50,0,0.00127,
4,7,0.50,5.00,0,0.00094,
4,7,5.00,10.00,0,0.00060,
4,7,10.00,100.00,0,0.00026,
4,8,0.00,0.50,0,0.00550,
4,8,0.50,5.00,0,0.00413,
4,8,5.00,10.00,0,0.00275,
4,8,10.00,100.00,0,0.00138,
4,9,0.00,0.50,0,0.00364,
4,9,0.50,5.00,0,0.00271,
4,9,5.00,10.00,0,0.00179,
4,9,10.00,100.00,0,0.00086,
4,10,0.00,0.50,0,0.00000,
4,10,0.50,5.00,0,0.00000,
4,10,5.00,10.00,0,0.00000,
4,10,10.00,100.00,0,0.00000,
5,1,0.00,0.50,0,0.00291,
5,1,0.50,5.00,0,0.00231,
5,1,5.00,10.00,0,0.00170,
5,1,10.00,100.00,0,0.00110,
5,2,0.00,0.50,0,0.02590,0.00259
5,2,0.50,5.00,0,0.01930,0.00193
5,2,5.00,10.00,0,0.01270,0.00127
5,2,10.00,100.00,0,0.00610,0.00061
5,3,0.00,0.50,0,0.00418,
5,3,0.50,5.00,0,0.00313,
5,3,5.00,10.00,0,0.00207,
5,3,10.00,100.00,0,0.00102,
5,4,0.00,0.50,0,0.00650,
5,4,0.50,5.00,0,0.00488,
5,4,5.00,10.00,0,0.00325,
5,4,10.00,100.00,0,0.00163,
5,5,0.00,0.50,0,0.00000,
5,5,0.50,5.00,0,0.00000,
5,5,5.00,10.00,0,0.00000,
5,5,10.00,100.00,0,0.00000,
5,6,0.00,0.50,0,0.00000,
5,6,0.50,5.00,0,0.00000,
5,6,5.00,10.00,0,0.00000,
5,6,10.00,100.00,0,0.00000,
5,7,0.00,0.50,0,0.00136,
5,7,0.50,5.00,0,0.00101,
5,7,5.00,10.00,0,0.00066,
5,7,10.00,100.00,0,0.00030,
5,8,0.00,0.50,0,0.00650,
5,8,0.50,5.00,0,0.00488,
5,8,5.00,10.00,0,0.00325,
5,8,10.00,100.00,0,0.00163,
5,9,0.00,0.50,0,0.00418,
5,9,0.50,5.00,0,0.00313,
5,9,5.00,10.00,0,0.00207,
5,9,10.00,100.00,0,0.00102,
5,10,0.00,0.50,0,0.00000,
5,10,0.50,5.00,0,0.00000,
5,10,5.00,10.00,0,0.00000,
5,10,10.00,100.00,0,0.00000,
6,1,0.00,0.50,0,0.00274,
6,1,0.50,5.00,0,0.00218,
6,1,5.00,10.00,0,0.00161,
6,1,10.00,100.00,0,0.00105,
6,2,0.00,0.50,0,0.02460,0.00246
6,2,0.50,5.00,0,0.01820,0.00182
6,2,5.00,10.00,0,0.01200,0.00120
6,2,10.00,100.00,0,0.00560,0.00056
6,3,0.00,0.50,0,0.00391,
6,3,0.50,5.00,0,0.00292,
6,3,5.00,10.00,0,0.00193,
6,3,10.00,100.00,0,0.00094,
6,4,0.00,0.50,0,0.00600,
6,4,0.50,5.00,0,0.00450,
6,4,5.00,10.00,0,0.00300,
6,4,10.00,100.00,0,0.00150,
6,5,0.00,0.50,0,0.00000,
6,5,0.50,5.00,0,0.00000,
6,5,5.00,10.00,0,0.00000,
6,5,10.00,100.00,0,0.00000,
6,6,0.00,0.50,0,0.00000,
6,6,0.50,5.00,0,0.00000,
6,6,5.00,10.00,0,0.00000,
6,6,10.00,100.00,0,0.00000,
6,7,0.00,0.50,0,0.00132,
6,7,0.50,5.00,0,0.00097,
6,7,5.00,10.00,0,0.00063,
6,7,10.00,100.00,0,0.00028,
6,8,0.00,0.50,0,0.00600,
6,8,0.50,5.00,0,0.00450,
6,8,5.00,10.00,0,0.00300,
6,8,10.00,100.00,0,0.00150,
6,9,0.00,0.50,0,0.00391,
6,9,0.50,5.00,0,0.00292,
6,9,5.00,10.00,0,0.00193,
6,9,10.00,100.00,0,0.00094,
6,10,0.00,0.50,0,0.00000,
6,10,0.50,5.00,0,0.00000,
6,10,5.00,10.00,0,0.00000,
6,10,10.00,100.00,0,0.00000,
7,1,0.00,0.50,0,0.00240,
7,1,0.50,5.00,0,0.00192,
7,1,5.00,10.00,0,0.00144,
7,1,10.00,100.00,0,0.00096,
7,2,0.00,0.50,0,0.02180,0.00218
7,2,0.50,5.00,0,0.01610,0.00161
7,2,5.00,10.00,0,0.01040,0.00104
7,2,10.00,100.00,0,0.00470,0.00047
7,3,0.00,0.50,0,0.00336,
7,3,0.50,5.00,0,0.00250,
7,3,5.00,10.00,0,0.00164,
7,3,10.00,100.00,0,0.00078,
7,4,0.00,0.50,0,0.00500,
7,4,0.50,5.00,0,0.00375,
7,4,5.00,10.00,0,0.00250,
7,4,10.00,100.00,0,0.00125,
7,5,0.00,0.50,0,0.00000,
7,5,0.50,5.00,0,0.00000,
7,5,5.00,10.00,0,0.00000,
7,5,10.00,100.00,0,0.00000,
7,6,0.00,0.50,0,0.00000,
7,6,0.50,5.00,0,0.00000,
7,6,5.00,10.00,0,0.00000,
7,6,10.00,100.00,0,0.00000,
7,7,0.00,0.50,0,0.00123,
7,7,0.50,5.00,0,0.00090,
7,7,5.00,10.00,0,0.00057,
7,7,10.00,100.00,0,0.00023,
7,8,0.00,0.50,0,0.00500,
7,8,0.50,5.00,0,0.00375,
7,8,5.00,10.00,0,0.00250,
7,8,10.00,100.00,0,0.00125,
7,9,0.00,0.50,0,0.00336,
7,9,0.50,5.00,0,0.00250,
7,9,5.00,10.00,0,0.00164,
7,9,10.00,100.00,0,0.00078,
7,10,0.00,0.50,0,0.00000,
7,10,0.50,5.00,0,0.00000,
7,10,5.00,10.00,0,0.00000,
7,10,10.00,100.00,0,0.00000,
8,1,0.00,0.50,0,0.00166,
8,1,0.50,5.00,0,0.00126,
8,1,5.00,10.00,0,0.00087,
8,1,10.00,100.00,0,0.00067,
8,2,0.00,0.50,0,0.01910,0.00191
8,2,0.50,5.00,0,0.01400,0.00140
8,2,5.00,10.00,0,0.00890,0.00089
8,2,10.00,100.00,0,0.00380,0.00038
8,3,0.00,0.50,0,0.00282,
8,3,0.50,5.00,0,0.00209,
8,3,5.00,10.00,0,0.00136,
8,3,10.00,100.00,0,0.00063,
8,4,0.00,0.50,0,0.00400,
8,4,0.50,5.00,0,0.00300,
8,4,5.00,10.00,0,0.00200,
8,4,10.00,100.00,0,0.00100,
8,5,0.00,0.50,0,0.00000,
8,5,0.50,5.00,0,0.00000,
8,5,5.00,10.00,0,0.00000,
8,5,10.00,100.00,0,0.00000,
8,6,0.00,0.50,0,0.00000,
8,6,0.50,5.00,0,0.00000,
8,6,5.00,10.00,0,0.00000,
8,6,10.00,100.00,0,0.00000,
8,7,0.00,0.50,0,0.00114,
8,7,0.50,5.00,0,0.00082,
8,7,5.00,10.00,0,0.00050,
8,7,10.00,100.00,0,0.00019,
8,8,0.00,0.50,0,0.00400,
8,8,0.50,5.00,0,0.00300,
8,8,5.00,10.00,0,0.00200,
8,8,10.00,100.00,0,0.00100,
8,9,0.00,0.50,0,0.00282,
8,9,0.50,5.00,0,0.00209,
8,9,5.00,10.00,0,0.00136,
8,9,10.00,100.00,0,0.00063,
8,10,0.00,0.50,0,0.00000,
8,10,0.50,5.00,0,0.00000,
8,10,5.00,10.00,0,0.00000,
8,10,10.00,100.00,0,0.00000,
9,1,0.00,0.50,0,0.00223,
9,1,0.50,5.00,0,0.00179,
9,1,5.00,10.00,0,0.00135,
9,1,10.00,100.00,0,0.00091,
9,2,0.00,0.50,0,0.02050,0.00205
9,2,0.50,5.00,0,0.01510,0.00151
9,2,5.00,10.00,0,0.00960,0.00096
9,2,10.00,100.00,0,0.00420,0.00042
9,3,0.00,0.50,0,0.00309,
9,3,0.50,5.00,0,0.00229,
9,3,5.00,10.00,0,0.00150,
9,3,10.00,100.00,0,0.00070,
9,4,0.00,0.50,0,0.00450,
9,4,0.50,5.00,0,0.00338,
9,4,5.00,10.00,0,0.00225,
9,4,10.00,100.00,0,0.00113,
9,5,0.00,0.50,0,0.00000,
9,5,0.50,5.00,0,0.00000,
9,5,5.00,10.00,0,0.00000,
9,5,10.00,100.00,0,0.00000,
9,6,0.00,0.50,0,0.00000,
9,6,0.50,5.00,0,0.00000,
9,6,5.00,10.00,0,0.00000,
9,6,10.00,100.00,0,0.00000,
9,7,0.00,0.50,0,0.00118,
9,7,0.50,5.00,0,0.00086,
9,7,5.00,10.00,0,0.00054,
9,7,10.00,100.00,0,0.00021,
9,8,0.00,0.50,0,0.00450,
9,8,0.50,5.00,0,0.00338,
9,8,5.00,10.00,0,0.00225,
9,8,10.00,100.00,0,0.00113,
9,9,0.00,0.50,0,0.00309,
9,9,0.50,5.00,0,0.00229,
9,9,5.00,10.00,0,0.00150,
9,9,10.00,100.00,0,0.00070,
9,10,0.00,0.50,0,0.00000,
9,10,0.50,5.00,0,0.00000,
9,10,5.00,10.00,0,0.00000,
9,10,10.00,100.00,0,0.00000,
10,1,0.00,0.50,0,0.00189,
10,1,0.50,5.00,0,0.00154,
10,1,5.00,10.00,0,0.00118,
10,1,10.00,100.00,0,0.00082,
10,2,0.00,0.50,0,0.01780,0.00178
10,2,0.50,5.00,0,0.01290,0.00129
10,2,5.00,10.00,0,0.00810,0.00081
10,2,10.00,100.00,0,0.00330,0.00033
10,3,0.00,0.50,0,0.00255,
10,3,0.50,5.00,0,0.00189,
10,3,5.00,10.00,0,0.00122,
10,3,10.00,100.00,0,0.00055,
10,4,0.00,0.50,0,0.00350,
10,4,0.50,5.00,0,0.00263,
10,4,5.00,10.00,0,0.00175,
10,4,10.00,100.00,0,0.00088,
10,5,0.00,0.50,0,0.00000,
10,5,0.50,5.00,0,0.00000,
10,5,5.00,10.00,0,0.00000,
10,5,10.00,100.00,0,0.00000,
10,6,0.00,0.50,0,0.00000,
10,6,0.50,5.00,0,0.00000,
10,6,5.00,10.00,0,0.00000,
10,6,10.00,100.00,0,0.00000,
10,7,0.00,0.50,0,0.00109,
10,7,0.50,5.00,0,0.00078,
10,7,5.00,10.00,0,0.00048,
10,7,10.00,100.00,0,0.00016,
10,8,0.00,0.50,0,0.00350,
10,8,0.50,5.00,0,0.00263,
10,8,5.00,10.00,0,0.00175,
10,8,10.00,100.00,0,0.00088,
10,9,0.00,0.50,0,0.00255,
10,9,0.50,5.00,0,0.00189,
10,9,5.00,10.00,0,0.00122,
10,9,10.00,100.00,0,0.00055,
10,10,0.00,0.50,0,0.00000,
10,10,0.50,5.00,0,0.00000,
10,10,5.00,10.00,0,0.00000,
10,10,10.00,100.00,0,0.00000,
11,1,0.00,0.50,0,0.00172,
11,1,0.50,5.00,0,0.00140,
11,1,5.00,10.00,0,0.00109,
11,1,10.00,100.00,0,0.00077,
11,2,0.00,0.50,0,0.01640,0.00164
11,2,0.50,5.00,0,0.01180,0.00118
11,2,5.00,10.00,0,0.00730,0.00073
11,2,10.00,100.00,0,0.00280,0.00028
11,3,0.00,0.50,0,0.00227,
11,3,0.50,5.00,0,0.00167,
11,3,5.00,10.00,0,0.00108,
11,3,10.00,100.00,0,0.00047,
11,4,0.00,0.50,0,0.00300,
11,4,0.50,5.00,0,0.00225,
11,4,5.00,10.00,0,0.00150,
11,4,10.00,100.00,0,0.00075,
11,5,0.00,0.50,0,0.00000,
11,5,0.50,5.00,0,0.00000,
11,5,5.00,10.00,0,0.00000,
11,5,10.00,100.00,0,0.00000,
11,6,0.00,0.50,0,0.00000,
11,6,0.50,5.00,0,0.00000,
11,6,5.00,10.00,0,0.00000,
11,6,10.00,100.00,0,0.00000,
11,7,0.00,0.50,0,0.00105,
11,7,0.50,5.00,0,0.00074,
11,7,5.00,10.00,0,0.00045,
11,7,10.00,100.00,0,0.00014,
11,8,0.00,0.50,0,0.00300,
11,8,0.50,5.00,0,0.00225,
11,8,5.00,10.00,0,0.00150,
11,8,10.00,100.00,0,0.00075,
11,9,0.00,0.50,0,0.00227,
11,9,0.50,5.00,0,0.00167,
11,9,5.00,10.00,0,0.00108,
11,9,10.00,100.00,0,0.00047,
11,10,0.00,0.50,0,0.00000,
11,10,0.50,5.00,0,0.00000,
11,10,5.00,10.00,0,0.00000,
11,10,10.00,100.00,0,0.00000,
12,1,0.00,0.50,0,0.00155,
12,1,0.50,5.00,0,0.00128,
12,1,5.00,10.00,0,0.00100,
12,1,10.00,100.00,0,0.00073,
12,2,0.00,0.50,0,0.01500,0.00150
12,2,0.50,5.00,0,0.01080,0.00108
12,2,5.00,10.00,0,0.00660,0.00066
12,2,10.00,100.00,0,0.00230,0.00023
12,3,0.00,0.50,0,0.00200,
12,3,0.50,5.00,0,0.00146,
12,3,5.00,10.00,0,0.00093,
12,3,10.00,100.00,0,0.00039,
12,4,0.00,0.50,0,0.00250,
12,4,0.50,5.00,0,0.00188,
12,4,5.00,10.00,0,0.00125,
12,4,10.00,100.00,0,0.00063,
12,5,0.00,0.50,0,0.00000,
12,5,0.50,5.00,0,0.00000,
12,5,5.00,10.00,0,0.00000,
12,5,10.00,100.00,0,0.00000,
12,6,0.00,0.50,0,0.00000,
12,6,0.50,5.00,0,0.00000,
12,6,5.00,10.00,0,0.00000,
12,6,10.00,100.00,0,0.00000,
12,7,0.00,0.50,0,0.00100,
12,7,0.50,5.00,0,0.00071,
12,7,5.00,10.00,0,0.00042,
12,7,10.00,100.00,0,0.00012,
12,8,0.00,0.50,0,0.00250,
12,8,0.50,5.00,0,0.00188,
12,8,5.00,10.00,0,0.00125,
12,8,10.00,100.00,0,0.00063,
12,9,0.00,0.50,0,0.00200,
12,9,0.50,5.00,0,0.00146,
12,9,5.00,10.00,0,0.00093,
12,9,10.00,100.00,0,0.00039,
12,10,0.00,0.50,0,0.00000,
12,10,0.50,5.00,0,0.00000,
12,10,5.00,10.00,0,0.00000,
12,10,10.00,100.00,0,0.00000,
13,1,0.00,0.50,0,0.00155,
13,1,0.50,5.00,0,0.00128,
13,1,5.00,10.00,0,0.00100,
13,1,10.00,100.00,0,0.00073,
13,2,0.00,0.50,0,0.01500,0.00150
13,2,0.50,5.00,0,0.01080,0.00108
13,2,5.00,10.00,0,0.00660,0.00066
13,2,10.00,100.00,0,0.00230,0.00023
13,3,0.00,0.50,0,0.00200,
13,3,0.50,5.00,0,0.00146,
13,3,5.00,10.00,0,0.00093,
13,3,10.00,100.00,0,0.00039,
13,4,0.00,0.50,0,0.00250,
13,4,0.50,5.00,0,0.00188,
13,4,5.00,10.00,0,0.00125,
13,4,10.00,100.00,0,0.00063,
13,5,0.00,0.50,0,0.00000,
13,5,0.50,5.00,0,0.00000,
13,5,5.00,10.00,0,0.00000,
13,5,10.00,100.00,0,0.00000,
13,6,0.00,0.50,0,0.00000,
13,6,0.50,5.00,0,0.00000,
13,6,5.00,10.00,0,0.00000,
13,6,10.00,100.00,0,0.00000,
13,7,0.00,0.50,0,0.00100,
13,7,0.50,5.00,0,0.00071,
13,7,5.00,10.00,0,0.00042,
13,7,10.00,100.00,0,0.00012,
13,8,0.00,0.50,0,0.00250,
13,8,0.50,5.00,0,0.00188,
13,8,5.00,10.00,0,0.00125,
13,8,10.00,100.00,0,0.00063,
13,9,0.00,0.50,0,0.00200,
13,9,0.50,5.00,0,0.00146,
13,9,5.00,10.00,0,0.00093,
13,9,10.00,100.00,0,0.00039,
13,10,0.00,0.50,0,0.00000,
13,10,0.50,5.00,0,0.00000,
13,10,5.00,10.00,0,0.00000,
13,10,10.00,100.00,0,0.00000,
14,1,0.00,0.50,0,0.00240,
14,1,0.50,5.00,0,0.00192,
14,1,5.00,10.00,0,0.00144,
14,1,10.00,100.00,0,0.00096,
14,2,0.00,0.50,0,0.02180,0.00218
14,2,0.50,5.00,0,0.01610,0.00161
14,2,5.00,10.00,0,0.01040,0.00104
14,2,10.00,100.00,0,0.00470,0.00047
14,3,0.00,0.50,0,0.00336,
14,3,0.50,5.00,0,0.00250,
14,3,5.00,10.00,0,0.00164,
14,3,10.00,100.00,0,0.00078,
14,4,0.00,0.50,0,0.00500,
14,4,0.50,5.00,0,0.00375,
14,4,5.00,10.00,0,0.00250,
14,4,10.00,100.00,0,0.00125,
14,5,0.00,0.50,0,0.00000,
14,5,0.50,5.00,0,0.00000,
14,5,5.00,10.00,0,0.00000,
14,5,10.00,100.00,0,0.00000,
14,6,0.00,0.50,0,0.00000,
14,6,0.50,5.00,0,0.00000,
14,6,5.00,10.00,0,0.00000,
14,6,10.00,100.00,0,0.00000,
14,7,0.00,0.50,0,0.00123,
14,7,0.50,5.00,0,0.00090,
14,7,5.00,10.00,0,0.00057,
14,7,10.00,100.00,0,0.00023,
14,8,0.00,0.50,0,0.00500,
14,8,0.50,5.00,0,0.00375,
14,8,5.00,10.00,0,0.00250,
14,8,10.00,100.00,0,0.00125,
14,9,0.00,0.50,0,0.00336,
14,9,0.50,5.00,0,0.00250,
14,9,5.00,10.00,0,0.00164,
14,9,10.00,100.00,0,0.00078,
14,10,0.00,0.50,0,0.00000,
14,10,0.50,5.00,0,0.00000,
14,10,5.00,10.00,0,0.00000,
14,10,10.00,100.00,0,0.00000,
0,0,0.00,0.50,5,0.03300,Baumhardt et al. 1993
0,0,0.50,5.00,5,0.03300,""""
0,0,5.00,10.00,5,0.03300,""""
0,0,10.00,100.00,5,0.03300,""""
0,0,0.00,0.50,8,0.35000,"retain all runoff, high berm"
0,0,0.50,5.00,8,0.35000,""""
0,0,5.00,10.00,8,0.35000,""""
0,0,10.00,100.00,8,0.35000,""""
0,0,0.00,0.50,7,0.05000,assume 1/3 of 15 cm high furrow ridge
0,0,0.50,5.00,7,0.05000,""""
0,0,5.00,10.00,7,0.05000,""""
0,0,10.00,100.00,7,0.05000,""""
